<svg xmlns="http://www.w3.org/2000/svg"
aria-label="Deezer" role="img"
viewBox="0 0 512 512"><rect
width="512" height="512"
rx="15%"
fill="#fff"/>
	<defs>
		<linearGradient id="a" x1="407" x2="406" y1="247" y2="197" gradientUnits="userSpaceOnUse">
			<stop offset="0" stop-color="#358c7b"/>
			<stop offset=".5" stop-color="#33a65e"/>
		</linearGradient>
		<linearGradient id="b" x1="364" x2="449" y1="311" y2="268" gradientUnits="userSpaceOnUse">
			<stop offset="0" stop-color="#222b90"/><stop offset="1" stop-color="#367b99"/>
		</linearGradient>
		<linearGradient id="c" x1="64" x2="147" y1="357" y2="357" gradientUnits="userSpaceOnUse">
			<stop offset="0" stop-color="#f90"/><stop offset="1" stop-color="#ff8000"/>
		</linearGradient>
		<linearGradient id="d" x1="165" x2="247" y1="357" y2="357" gradientUnits="userSpaceOnUse">
			<stop offset="0" stop-color="#ff8000"/>
			<stop offset="1" stop-color="#cc1953"/>
		</linearGradient>
		<linearGradient id="e" x1="265" x2="348" y1="357" y2="357" gradientUnits="userSpaceOnUse">
			<stop offset="0" stop-color="#cc1953"/>
			<stop offset="1" stop-color="#241284"/>
		</linearGradient>
		<linearGradient id="f" x1="365" x2="448" y1="357" y2="357" gradientUnits="userSpaceOnUse">
			<stop offset="0" stop-color="#222b90"/>
			<stop offset="1" stop-color="#3559a6"/>
		</linearGradient>
		<linearGradient id="g" x1="261" x2="351" y1="302" y2="276" gradientUnits="userSpaceOnUse">
			<stop offset="0" stop-color="#cc1953"/>
			<stop offset="1" stop-color="#241284"/>
		</linearGradient>
		<linearGradient id="h" x1="161" x2="250" y1="273" y2="306" gradientUnits="userSpaceOnUse">
			<stop offset="0" stop-color="#fc0"/>
			<stop offset="1" stop-color="#ce1938"/>
		</linearGradient>
		<linearGradient id="i" x1="171" x2="240" y1="190" y2="254" gradientUnits="userSpaceOnUse">
			<stop offset="0" stop-color="#ffd100"/>
			<stop offset="1" stop-color="#fd5a22"/>
		</linearGradient>
	</defs>
	<g>
		<path fill="#40ab5d" d="M365 130h83v49h-83z"/>
		<path fill="url(#a)" d="M365 198h83v49h-83z"/>
		<path fill="url(#b)" d="M365 265h83v49h-83z"/>
		<path fill="url(#c)" d="M64 332h83v49H64z"/>
		<path fill="url(#d)" d="M164 332h83v49h-83z"/>
		<path fill="url(#e)" d="M265 332h83v49h-83z"/>
		<path fill="url(#f)" d="M365 332h83v49h-83z"/>
		<path fill="url(#g)" d="M265 265h83v49h-83z"/>
		<path fill="url(#h)" d="M164 265h83v49h-83z"/>
		<path fill="url(#i)" d="M164 198h83v49h-83z"/>
	</g>
</svg>
